{
   "fields": [
      {
         "title": "Название 1 (ТМ-8)",
         "field": [
            { 
               "code_id": 1,
               "stationId": 27400,
               "dateTime": "",
               "paremeters": [
                  {
                     "parameter_id": 1, 
                     "parameter_value_id": 2,
                     "parameter_value": ""
                  },
                  {
                     "parameter_id": 2, 
                     "parameter_value_id": null,
                     "parameter_value": "10g1М" 
                  },
                  {
                     "parameter_id": 3, 
                     "parameter_value_id": null, 
                     "parameter_value": "baf"
                  }
               ],
               "value": 10.3 
            },
            { 
               "code_id": 2,
               "stationId": 27400,
               "dateTime": "",
               "paremeters": [
                  {
                     "parameter_id": 1, 
                     "parameter_value_id": 4, 
                     "parameter_value": ""
                  },
                  {
                     "parameter_id": 2, 
                     "parameter_value_id": null,
                     "parameter_value": "10Мd" 
                  },
                  {
                     "parameter_id": 3, 
                     "parameter_value_id": null, 
                     "parameter_value": "gaf"
                  }
               ],
               "value": 12.3 
            },
            { 
               "code_id": 3, 
               "stationId": 27400,
               "dateTime": "",
               "paremeters": [
                  {
                     "parameter_id": 1,
                     "parameter_value_id": 3, 
                     "parameter_value": ""
                  },
                  {
                     "parameter_id": 2,
                     "parameter_value_id": null,
                     "parameter_value": "10М" 
                  },
                  {
                     "parameter_id": 3, 
                     "parameter_value_id": null, 
                     "parameter_value": "dagf"
                  }
               ],
               "value": 12.3
            },
            { 
               "code_id": 4,
               "stationId": 27400,
               "dateTime": "",
               "paremeters": [
                  {
                     "parameter_id": 1,
                     "parameter_value_id": 2, 
                     "parameter_value": ""
                  },
                  {
                     "parameter_id": 2, 
                     "parameter_value_id": null,
                     "parameter_value": "10М"
                  },
                  {
                     "parameter_id": 3, 
                     "parameter_value_id": null, 
                     "parameter_value": "ruf"
                  }
               ],
               "value": 13.3 
            }
         ]
      },
      {
         "title": "Название 2 (ТМ-8)",
         "field": [
            {
               "code_id": 1,
               "stationId": 27400,
               "dateTime": "",
               "paremeters": [
                  {
                     "parameter_id": 1,
                     "parameter_value_id": 2,
                     "parameter_value": ""
                  },
                  {
                     "parameter_id": 2,
                     "parameter_value_id": null,
                     "parameter_value": "zed"
                  },
                  {
                     "parameter_id": 3,
                     "parameter_value_id": null,
                     "parameter_value": "ped"
                  }
               ],
               "value": 13.6
            },
            {
               "code_id": 2,
               "stationId": 27400,
               "dateTime": "",
               "paremeters": [
                  {
                     "parameter_id": 1,
                     "parameter_value_id": 1,
                     "parameter_value": ""
                  },
                  {
                     "parameter_id": 2,
                     "parameter_value_id": null,
                     "parameter_value": "ged"
                  },
                  {
                     "parameter_id": 3,
                     "parameter_value_id": null,
                     "parameter_value": "red"
                  }
               ],
               "value": 13.6
            }
         ]
      }
   ]
}